{
    "editor": [
        {
            "icon": "",
            "key": "preGameScreen",
            "header": "PreGameScreen",
            "disabled": false,
            "fields": [
                {
                    "key": "titleText",
                    "header": "Title Text",
                    "type": "text"
                },
                {
                    "key": "titleTextSize",
                    "header": "Title text size",
                    "type": "range",
                    "options": {
                        "minValue": 20,
                        "maxValue": 40,
                        "stepSize": "1"
                    }
                },
                {
                    "key": "playButtonText",
                    "header": "Play Button Text",
                    "type": "text"
                },
                {
                    "key": "buttonTextColor",
                    "header": "Play Button Text Color",
                    "type": "color"
                },
                {
                    "key": "backgroundImage",
                    "header": "Background Image",
                    "type": "image"
                },
                {
                    "key": "backgroundMode",
                    "header": "Background image mode",
                    "type": "dropdown",
                    "options": [
                        "cover",
                        "fit"
                    ]
                },
                {
                    "key": "backgroundColor",
                    "header": "Background color",
                    "type": "color"
                },
                {
                    "key": "titleImage",
                    "header": "Header Image",
                    "type": "image"
                },
                {
                    "key": "titleImageSize",
                    "header": "Header image size",
                    "type": "range",
                    "options": {
                        "minValue": 150,
                        "maxValue": 400,
                        "stepSize": "1"
                    }
                },
                {
                    "key": "cardColor",
                    "header": "Card Color",
                    "type": "color"
                },
                {
                    "key": "buttonColor",
                    "header": "Play Button Color",
                    "type": "color"
                },
                {
                    "key": "fontFamily",
                    "header": "Google Font Name",
                    "type": "text"
                },
                {
                    "key": "showLeaderboardButton",
                    "header": "Show leaderboard button",
                    "type": "boolean"
                },
                {
                    "key": "leaderboardButtonText",
                    "header": "Leaderboard button text",
                    "type": "text"
                },
                {
                    "key": "showSoundButton",
                    "header": "Show sound button",
                    "type": "boolean"
                },
                {
                    "key": "soundEnabledIcon",
                    "type": "image",
                    "header": "Sound enabled icon"
                },
                {
                    "key": "soundDisabledIcon",
                    "type": "image",
                    "header": "Sound disabled icon"
                }
            ]
        },
        {
            "icon": "",
            "key": "settings",
            "header": "Game Settings",
            "disabled": false,
            "fields": [
                {
                    "key": "instructions1",
                    "type": "text",
                    "header": "Instructions Text 1"
                },
                {
                    "key": "instructions2",
                    "type": "text",
                    "header": "Instructions Text 2"
                },
                {
                    "key": "instructions3",
                    "type": "text",
                    "header": "Instructions Text 3"
                },
                {
                    "key": "textColor",
                    "header": "In Game Text Color",
                    "type": "color"
                },
                {
                    "key": "coins",
                    "header": "Coin images",
                    "type": "array",
                    "fields": [
                        {
                            "key": "coin1",
                            "header": "Coin 1",
                            "type": "image"
                        },
                        {
                            "key": "coin2",
                            "header": "Coin 2",
                            "type": "image"
                        },
                        {
                            "key": "coin3",
                            "header": "Coin 3",
                            "type": "image"
                        }
                    ]
                },
                {
                    "key": "spikes",
                    "header": "Spike images",
                    "type": "array",
                    "fields": [
                        {
                            "key": "spikes1",
                            "header": "Spikes 1",
                            "type": "image"
                        }
                    ]
                },
                {
                    "key": "block",
                    "header": "Ground middle image",
                    "type": "image"
                },
                {
                    "key": "top",
                    "header": "Ground top image",
                    "type": "image"
                },
                {
                    "key": "hill",
                    "header": "Ground hill image",
                    "type": "image"
                },
                {
                    "key": "player",
                    "header": "Player image",
                    "type": "image"
                },
                {
                    "key": "showSpikes",
                    "header": "Show spikes",
                    "type": "boolean"
                },
                {
                    "key": "lives",
                    "header": "Use health",
                    "type": "boolean"
                },
                {
                    "key": "heart",
                    "header": "Heart image",
                    "type": "image"
                },
                {
                    "key": "livesCount",
                    "header": "Health count",
                    "type": "range",
                    "options": {
                        "minValue": 2,
                        "maxValue": 5,
                        "stepSize": 1
                    }
                },
                {
                    "key": "winScore",
                    "header": "Win after hitting x score",
                    "type": "boolean"
                },
                {
                    "key": "maxScore",
                    "header": "Score required to win",
                    "type": "range",
                    "options": {
                        "minValue": 5,
                        "maxValue": 500,
                        "stepSize": 1
                    }
                },
                {
                    "key": "fixedLength",
                    "header": "Stop game after amount of time",
                    "type": "boolean"
                },
                {
                    "key": "gameLength",
                    "header": "Amount of time to stop gaem after",
                    "type": "range",
                    "options": {
                        "minValue": 5,
                        "maxValue": 120,
                        "stepSize": 1
                    }
                },
                {
                    "key": "messageTextColor",
                    "header": "Message text color",
                    "type": "color"
                },
                {
                    "key": "winMessage",
                    "header": "Win message",
                    "type": "text"
                },
                {
                    "key": "loseMessage",
                    "header": "Lose message",
                    "type": "text"
                },
                {
                    "key": "timeUpMessage",
                    "header": "Time up message",
                    "type": "text"
                },
                {
                    "key": "theme",
                    "header": "Background Music",
                    "type": "sound"
                },
                {
                    "key": "coinSound",
                    "header": "Coin collect sound",
                    "type": "sound"
                },
                {
                    "key": "hitSound",
                    "header": "Hit sound",
                    "type": "sound"
                },
                {
                    "key": "loseSound",
                    "header": "Lose sound effect",
                    "type": "sound"
                },
                {
                    "key": "volume",
                    "header": "Background music volume",
                    "type": "range",
                    "options": {
                        "minValue": 0,
                        "maxValue": 1,
                        "stepSize": "0.1"
                    }
                }
            ]
        },
        {
            "icon": "",
            "key": "postGameScreen",
            "header": "Post Game Screen",
            "disabled": false,
            "fields": [
                {
                    "key": "scoreText",
                    "header": "Text before score",
                    "type": "text"
                },
                {
                    "key": "textColor",
                    "header": "Text Color",
                    "type": "color"
                },
                {
                    "key": "buttonTextColor",
                    "header": "Button text color",
                    "type": "color"
                },
                {
                    "key": "cardColor",
                    "header": "Card Background Color",
                    "type": "color"
                },
                {
                    "key": "playButtonText",
                    "header": "Play again button text",
                    "type": "text"
                },
                {
                    "key": "buttonColor",
                    "header": "Buttons color",
                    "type": "color"
                },
                {
                    "key": "buttonTextColor",
                    "header": "Buttons text color",
                    "type": "color"
                },
                {
                    "key": "showText",
                    "header": "Show custom text",
                    "type": "boolean"
                },
                {
                    "key": "customText",
                    "header": "Custom text",
                    "type": "text"
                },
                {
                    "key": "submitName",
                    "header": "Show name field",
                    "type": "boolean"
                },
                {
                    "key": "submitEmail",
                    "header": "Show email field",
                    "type": "boolean"
                },
                {
                    "key": "submitScoreText",
                    "header": "Submit score button text",
                    "type": "text"
                },
                {
                    "key": "showLeadeboardButtonPostGameScreen",
                    "header": "Show Leadeboard Button",
                    "type": "boolean"
                },
                {
                    "key": "leaderboardButtonText",
                    "type": "text",
                    "header": "Leadeboard button text"
                },
                {
                    "key": "showCTA",
                    "header": "Show CTA Button",
                    "type": "boolean"
                },
                {
                    "key": "ctaText",
                    "header": "CTA text",
                    "type": "text"
                },
                {
                    "key": "ctaButtonText",
                    "header": "CTA button text",
                    "type": "text"
                },
                {
                    "key": "ctaUrl",
                    "header": "CTA Link",
                    "type": "text"
                }
            ]
        }
    ],
    "config": {
        "preGameScreen": {
            "titleText": "crypto.com",
            "titleTextSize": 24,
            "playButtonText": "Play",
            "cardColor": "#ffffff",
            "buttonColor": "#000000",
            "buttonTextColor": "#ffffff",
            "backgroundImage": "http://frontend.apps.playcent.com/11fe8f5c81fd43fea06d27094e97e0b5/assets/exchange-twitter-metacard.png",
            "backgroundMode": "fit",
            "backgroundColor": "#033d83",
            "titleImage": "http://frontend.apps.playcent.com/11fe8f5c81fd43fea06d27094e97e0b5/assets/download (6).jpeg",
            "titleImageSize": 200,
            "fontFamily": "Rosario",
            "showLeaderboardButton": true,
            "leaderboardButtonText": "Leaderboard",
            "showSoundButton": true,
            "soundEnabledIcon": "http://frontend.apps.playcent.com/jumper/assets/sound_on.png",
            "soundDisabledIcon": "http://frontend.apps.playcent.com/jumper/assets/sound_off.png"
        },
        "settings": {
            "instructions1": "Tap / Spacebar to jump!",
            "instructions2": "Jump over the gaps!",
            "instructions3": "Collect coins and dodge spikes!",
            "textColor": "#f4f2f2",
            "coins": {
                "coin1": "http://frontend.apps.playcent.com/11fe8f5c81fd43fea06d27094e97e0b5/assets/monaco-250x250-removebg-preview.png",
                "coin2": "http://frontend.apps.playcent.com/11fe8f5c81fd43fea06d27094e97e0b5/assets/unnamed-removebg-preview (7).png",
                "coin3": "http://frontend.apps.playcent.com/18475a273ec64e369d6a4a91f9bb15f3/assets/79e364ceccd6f199c018c27a20b5dbd6-removebg-preview.png"
            },
            "spikes": {
                "spikes1": "http://frontend.apps.playcent.com/970d77322f3346358b8ac9998dd1abad/assets/i8JJRW_z-removebg-preview (4).png"
            },
            "top": "http://frontend.apps.playcent.com/11fe8f5c81fd43fea06d27094e97e0b5/assets/download (7).jpeg",
            "hill": "http://frontend.apps.playcent.com/11fe8f5c81fd43fea06d27094e97e0b5/assets/download (7).jpeg",
            "block": "http://frontend.apps.playcent.com/11fe8f5c81fd43fea06d27094e97e0b5/assets/download (7).jpeg",
            "player": "http://frontend.apps.playcent.com/11fe8f5c81fd43fea06d27094e97e0b5/assets/kris-c8ac464b-removebg-preview.png",
            "showSpikes": true,
            "lives": true,
            "heart": "http://frontend.apps.playcent.com/11fe8f5c81fd43fea06d27094e97e0b5/assets/monaco-250x250-removebg-preview.png",
            "livesCount": 3,
            "winScore": true,
            "maxScore": 15,
            "fixedLength": true,
            "gameLength": 104,
            "messageTextColor": "#f4efef",
            "winMessage": "Congratulations",
            "loseMessage": "Better luck next time!",
            "timeUpMessage": "Time Up!",
            "theme": "http://frontend.apps.playcent.com/970d77322f3346358b8ac9998dd1abad/assets/The_Future_Ancient_Now (mp3cut.net).mp3",
            "volume": "0.7",
            "coinSound": "http://frontend.apps.playcent.com/970d77322f3346358b8ac9998dd1abad/assets/coin.mp3",
            "loseSound": "http://frontend.apps.playcent.com/970d77322f3346358b8ac9998dd1abad/assets/Death Sound 3.mp3",
            "hitSound": "http://frontend.apps.playcent.com/970d77322f3346358b8ac9998dd1abad/assets/Death Sound 1.mp3"
        },
        "postGameScreen": {
            "scoreText": "Your score is: ",
            "playButtonText": "Play Again",
            "buttonColor": "#000000",
            "cardColor": "#ffffff",
            "textColor": "#000000",
            "buttonTextColor": "#ffffff",
            "showLeadeboardButtonPostGameScreen": true,
            "submitScoreText": "Submit score",
            "leaderboardButtonText": "Leaderboard",
            "showText": false,
            "customText": "Funds are safu",
            "submitName": true,
            "submitEmail": true,
            "showCTA": true,
            "ctaText": "Check out our page for more",
            "ctaButtonText": "Go to crypto.com",
            "ctaUrl": "https://crypto.com/"
        }
    }
}